\relax 
\providecommand\HyperFirstAtBeginDocument{\AtBeginDocument}
\HyperFirstAtBeginDocument{\ifx\hyper@anchor\@undefined
\global\let\oldcontentsline\contentsline
\gdef\contentsline#1#2#3#4{\oldcontentsline{#1}{#2}{#3}}
\global\let\oldnewlabel\newlabel
\gdef\newlabel#1#2{\newlabelxx{#1}#2}
\gdef\newlabelxx#1#2#3#4#5#6{\oldnewlabel{#1}{{#2}{#3}}}
\AtEndDocument{\ifx\hyper@anchor\@undefined
\let\contentsline\oldcontentsline
\let\newlabel\oldnewlabel
\fi}
\fi}
\global\let\hyper@last\relax 
\gdef\HyperFirstAtBeginDocument#1{#1}
\providecommand\HyField@AuxAddToFields[1]{}
\citation{NumericalAnalysis}
\citation{knuthwebsite}
\citation{Sidi}
\citation{NumericalAnalysis}
\@writefile{toc}{\contentsline {section}{\numberline {1}Introduction}{1}{section.1}}
\@writefile{toc}{\contentsline {subsection}{\numberline {1.1}Background: A Few Words on Series Expansions}{1}{subsection.1.1}}
\newlabel{othequation}{{1}{2}{Background: A Few Words on Series Expansions\relax }{equation.1.1}{}}
\@writefile{toc}{\contentsline {section}{\numberline {2}Simple Numerical Differentiation and Integration Schemes}{2}{section.2}}
\@writefile{toc}{\contentsline {subsection}{\numberline {2.1}Differentiation via First Divided Differencs}{2}{subsection.2.1}}
\newlabel{2ndequation}{{2}{2}{Differentiation via First Divided Differencs\relax }{equation.2.2}{}}
\@writefile{lof}{\contentsline {figure}{\numberline {1}{\ignorespaces Example of a parametric plot ($\qopname  \relax o{sin}(x), \qopname  \relax o{cos}(x), x$)}}{2}{figure.1}}
\@writefile{lot}{\contentsline {table}{\numberline {1}{\ignorespaces Iteration of a Generic Extrapolation Method}}{3}{table.1}}
\newlabel{table:1}{{1}{3}{Iteration of a Generic Extrapolation Method\relax }{table.1}{}}
\@writefile{toc}{\contentsline {section}{\numberline {3}The Richardson and Romberg Extrapolation Technique}{3}{section.3}}
\@writefile{lof}{\contentsline {figure}{\numberline {2}{\ignorespaces Trapezoid Rule applied to \relax $\DOTSI \intop \ilimits@ _{0.25}^{1.25} exp(-x^2)\relax \GenericError  {               }{LaTeX Error: Bad math environment delimiter}{See the LaTeX manual or LaTeX Companion for explanation.}{Your command was ignored.\MessageBreak Type  I <command> <return>  to replace it with another command,\MessageBreak or  <return>  to continue without it.}}}{3}{figure.2}}
\newlabel{fig:trap}{{2}{3}{Trapezoid Rule applied to \(\int _{0.25}^{1.25} exp(-x^2)\)\relax }{figure.2}{}}
\bibcite{NumericalAnalysis}{1}
\@writefile{lot}{\contentsline {table}{\numberline {2}{\ignorespaces Slope between step-sizes}}{4}{table.2}}
\newlabel{table:2}{{2}{4}{Slope between step-sizes\relax }{table.2}{}}
\newlabel{4thequation}{{3}{4}{The Richardson and Romberg Extrapolation Technique\relax }{equation.3.3}{}}
\@writefile{toc}{\contentsline {section}{\numberline {4}Conclusion}{4}{section.4}}
\bibcite{AnalysisofNumericalMethods}{2}
\bibcite{knuthwebsite}{3}
\bibcite{Sidi}{4}
\bibcite{stoer}{5}
