\BOOKMARK [1][-]{section.1}{Introduction}{}% 1
\BOOKMARK [2][-]{subsection.1.1}{Background: A Few Words on Series Expansions}{section.1}% 2
\BOOKMARK [1][-]{section.2}{Simple Numerical Differentiation and Integration Schemes}{}% 3
\BOOKMARK [2][-]{subsection.2.1}{Differentiation via First Divided Differencs}{section.2}% 4
\BOOKMARK [1][-]{section.3}{The Richardson and Romberg Extrapolation Technique}{}% 5
\BOOKMARK [1][-]{section.4}{Conclusion}{}% 6
